<mxfile host="app.diagrams.net" modified="2021-03-26T13:40:12.145Z" agent="5.0 (Macintosh; Intel Mac OS X 10_15_7) AppleWebKit/537.36 (KHTML, like Gecko) Chrome/89.0.4389.90 Safari/537.36" etag="PhRnoxGM_I-wGUTtV5kx" version="14.5.1" type="gitlab">
  <diagram id="Kv2fFyFld3e5Vm9Btd0b" name="Page-1">
    <mxGraphModel dx="2514" dy="1018" grid="1" gridSize="10" guides="1" tooltips="1" connect="1" arrows="1" fold="1" page="1" pageScale="1" pageWidth="827" pageHeight="1169" math="0" shadow="0">
      <root>
        <mxCell id="0" />
        <mxCell id="1" parent="0" />
        <mxCell id="Q4NI3u-6S33VV5Kxmuki-4" style="edgeStyle=orthogonalEdgeStyle;rounded=0;orthogonalLoop=1;jettySize=auto;html=1;exitX=1;exitY=0.5;exitDx=0;exitDy=0;entryX=0;entryY=0.5;entryDx=0;entryDy=0;endArrow=none;endFill=0;" parent="1" source="Q4NI3u-6S33VV5Kxmuki-1" target="Q4NI3u-6S33VV5Kxmuki-2" edge="1">
          <mxGeometry relative="1" as="geometry" />
        </mxCell>
        <mxCell id="Nq2CemrST9VFJ9AHLOpZ-1" value="request data" style="rounded=0;orthogonalLoop=1;jettySize=auto;html=1;exitX=0;exitY=0.75;exitDx=0;exitDy=0;entryX=1;entryY=0.75;entryDx=0;entryDy=0;endArrow=classic;endFill=1;startArrow=none;startFill=0;" edge="1" parent="1" source="Nq2CemrST9VFJ9AHLOpZ-4" target="Q4NI3u-6S33VV5Kxmuki-6">
          <mxGeometry relative="1" as="geometry" />
        </mxCell>
        <mxCell id="Q4NI3u-6S33VV5Kxmuki-1" value="System Frontend" style="rounded=0;whiteSpace=wrap;html=1;" parent="1" vertex="1">
          <mxGeometry x="50" y="480" width="120" height="60" as="geometry" />
        </mxCell>
        <mxCell id="Q4NI3u-6S33VV5Kxmuki-5" style="edgeStyle=orthogonalEdgeStyle;rounded=0;orthogonalLoop=1;jettySize=auto;html=1;exitX=1;exitY=0.5;exitDx=0;exitDy=0;entryX=0;entryY=0.5;entryDx=0;entryDy=0;entryPerimeter=0;endArrow=none;endFill=0;" parent="1" source="Q4NI3u-6S33VV5Kxmuki-2" target="Q4NI3u-6S33VV5Kxmuki-3" edge="1">
          <mxGeometry relative="1" as="geometry" />
        </mxCell>
        <mxCell id="Nq2CemrST9VFJ9AHLOpZ-5" style="edgeStyle=none;rounded=0;orthogonalLoop=1;jettySize=auto;html=1;exitX=0.5;exitY=0;exitDx=0;exitDy=0;entryX=0.5;entryY=1;entryDx=0;entryDy=0;startArrow=none;startFill=0;endArrow=none;endFill=0;" edge="1" parent="1" source="Q4NI3u-6S33VV5Kxmuki-2" target="Nq2CemrST9VFJ9AHLOpZ-4">
          <mxGeometry relative="1" as="geometry" />
        </mxCell>
        <mxCell id="Q4NI3u-6S33VV5Kxmuki-2" value="System Backend" style="rounded=0;whiteSpace=wrap;html=1;" parent="1" vertex="1">
          <mxGeometry x="250" y="480" width="120" height="60" as="geometry" />
        </mxCell>
        <mxCell id="Q4NI3u-6S33VV5Kxmuki-3" value="database" style="shape=cylinder3;whiteSpace=wrap;html=1;boundedLbl=1;backgroundOutline=1;size=15;" parent="1" vertex="1">
          <mxGeometry x="480" y="470" width="60" height="80" as="geometry" />
        </mxCell>
        <mxCell id="Nq2CemrST9VFJ9AHLOpZ-2" style="edgeStyle=none;rounded=0;orthogonalLoop=1;jettySize=auto;html=1;exitX=1;exitY=0.25;exitDx=0;exitDy=0;entryX=0;entryY=0.25;entryDx=0;entryDy=0;endArrow=classic;endFill=1;" edge="1" parent="1" source="Q4NI3u-6S33VV5Kxmuki-6" target="Nq2CemrST9VFJ9AHLOpZ-4">
          <mxGeometry relative="1" as="geometry" />
        </mxCell>
        <mxCell id="Nq2CemrST9VFJ9AHLOpZ-3" value="send data" style="edgeLabel;html=1;align=center;verticalAlign=middle;resizable=0;points=[];" vertex="1" connectable="0" parent="Nq2CemrST9VFJ9AHLOpZ-2">
          <mxGeometry x="0.0718" y="-2" relative="1" as="geometry">
            <mxPoint as="offset" />
          </mxGeometry>
        </mxCell>
        <mxCell id="Q4NI3u-6S33VV5Kxmuki-6" value="External System" style="rounded=0;whiteSpace=wrap;html=1;fillColor=#dae8fc;strokeColor=#6c8ebf;" parent="1" vertex="1">
          <mxGeometry x="-150" y="380" width="120" height="60" as="geometry" />
        </mxCell>
        <mxCell id="Nq2CemrST9VFJ9AHLOpZ-4" value="System Backend" style="rounded=0;whiteSpace=wrap;html=1;" vertex="1" parent="1">
          <mxGeometry x="250" y="380" width="120" height="60" as="geometry" />
        </mxCell>
      </root>
    </mxGraphModel>
  </diagram>
</mxfile>
